Cyclistic Case Study
…
## [1] FALSE

all_trips$ride_length <- as.numeric(as.character(all_trips$ride_length))
is.numeric(all_trips$ride_length)

## [1] TRUE

The data frame includes a few hundred entries when bikes were taken
out of docks and checked for quality by Divvy or ride_length was
negative. Here I find negative ride lengths. I have commented out the
view of the data to limit the clutter of the report.

all_trips[all_trips$ride_length<0, ]

## # A tibble: 108 × 19
##    ride_id       ridea…¹ started_at          ended_at            start…² start…³
##    <chr>         <chr>   <dttm>              <dttm>              <chr>   <chr>  
##  1 B029250A1EFF… docked… 2021-11-07 01:40:02 2021-11-07 01:05:46 Halste… 13192  
##  2 D631251FA9C7… classi… 2021-11-07 01:52:53 2021-11-07 01:05:22 Clark … 632    
##  3 021DC77C70A3… classi… 2021-11-07 01:40:13 2021-11-07 01:00:29 New St… TA1306…
##  4 235ACD294AFB… electr… 2021-11-07 01:34:03 2021-11-07 01:17:13 Sherid… TA1309…
##  5 6A2DCA5CB159… classi… 2021-11-07 01:54:25 2021-11-07 01:03:44 Frankl… RN-    
##  6 E89DD4EBFBD2… classi… 2021-11-07 01:54:04 2021-11-07 01:25:57 Orlean… 636    
##  7 0006AA1377F8… classi… 2021-11-07 01:51:52 2021-11-07 01:22:53 Orlean… 636    
##  8 83B6C6B10248… classi… 2021-11-07 01:54:12 2021-11-07 01:05:09 Clinto… 13021  
##  9 FFD5A2DDE1FA… classi… 2021-11-07 01:54:36 2021-11-07 01:03:11 State … TA1305…
## 10 5132D82DCD66… electr… 2021-11-07 01:51:21 2021-11-07 01:07:59 N Gree… 20246.0
## # … with 98 more rows, 13 more variables: end_station_name <chr>,
## #   end_station_id <chr>, start_lat <dbl>, start_lng <dbl>, end_lat <dbl>,
## #   end_lng <dbl>, member_casual <chr>, date <date>, month <chr>, day <chr>,
## #   year <chr>, day_of_week <chr>, ride_length <dbl>, and abbreviated variable
## #   names ¹​rideable_type, ²​start_station_name, ³​start_station_id
## # ℹ Use `print(n = ...)` to see more rows, and `colnames()` to see all variable names
…
